; Engine configuration file.
; It's best edited using the editor UI and not directly,
; since the parameters that go here are not all obvious.
;
; Format:
;   [section] ; section goes between []
;   param=value ; assign values to parameters

config_version=4

_global_script_classes=[  ]
_global_script_class_icons={

}

[application]

config/name="Shmall"
run/main_scene="res://scenes/Player.tscn"
config/icon="res://icon.png"

[display]

window/size/width=800
window/size/height=980

[gdnative]

singletons=[  ]

[input]

fire={
"deadzone": 0.5,
"events": [ Object(InputEventKey,"resource_local_to_scene":false,"resource_name":"","device":0,"alt":false,"shift":false,"control":false,"meta":false,"command":false,"pressed":false,"scancode":32,"unicode":0,"echo":false,"script":null)
 ]
}

[logging]

file_logging/enable_file_logging=true

[rendering]

environment/default_environment="res://default_env.tres"
